{
  "message": "doctorsmodel validation failed",
  "name": "ValidationError",
  "errors": {
    "last_name": {
      "message": "Path `last_name` is required.",
      "name": "ValidatorError",
      "properties": {
        "type": "required",
        "message": "Path `{PATH}` is required.",
        "path": "last_name",
        "value": ""
      },
      "kind": "required",
      "path": "last_name",
      "value": ""
    }
  }
}

//====================================================================================
//							DoctorData - Section
//====================================================================================
{
    "_id" : ObjectId("571b5f069c8b23c37d673844"),
    "first_name" : "Hassan",
    "last_name" : "Asad",
    "username" : "Hassan341",
    "email" : "hassan20000@Ali.com",
    "password" : "25d55ad283aa400af464c76d713c07ad",
    "type" : "rental",
    "about" : "Neque porro quisquam est qui dolorem ipsum quia dolor sit amet, consectetur, adipisci velit...",
    "due_date" : 10,
    "availability" : {
        "from" : 17,
        "to" : 20,
        "slot" : 25,
        "days" : [ 
            "Mon", 
            "Tue", 
            "Wed", 
            "Thur", 
            "Sun"
        ]
    },
    "specialization" : [ 
        {
            "name" : "cardiologist"
        }, 
        {
            "name" : "Neurologist"
        }
    ],
    "address" : {
        "address_detail" : "House # 445, Street # 45, Krishna Nagar, Lahore",
        "city" : "Lahore",
        "country" : "Pakistan",
        "postal_code" : "54000"
    },
    "role" : [ 
        "doctor"
    ],
    "contacts" : [ 
        "03244770979"
    ],
    "__v" : 1
}
//====================================================================================
//							UserData - Section
//====================================================================================
{
    "first_name" : "Muhammad",
    "last_name" : "Asghar",
    "contacts" : [ 
        "03244770979"
    ],
    "username" : "muhammad123",
    "role" : [ 
        "patient"
    ],
    "email" : "test@gmail.com",
    "password" : "test1234",
    "address" : {
        "address_detail" : "House # 433, Street # 42, Washing Line, Lahore",
        "city" : "Lahore",
        "country" : "Pakistan",
        "postal_code" : "54000"
    }
}
{
    "first_name" : "Muhammad",
    "last_name" : "Aslam",
    "contacts" : [ 
        "03244770979"
    ],
    "username" : "muhammad4343",
    "role" : [ 
        "patient"
    ],
    "email" : "test23@gmail.com",
    "password" : "test1234",
    "address" : {
        "address_detail" : "House # 433, Street # 42, Washing Line, Lahore",
        "city" : "Lahore",
        "country" : "Pakistan",
        "postal_code" : "54000"
    }
}
{
    "first_name" : "Farhan",
    "last_name" : "Asghar",
    "contacts" : [ 
        "03244770979"
    ],
    "username" : "farhan123",
    "role" : [ 
        "patient"
    ],
    "email" : "farhan@gmail.com",
    "password" : "test1234",
    "address" : {
        "address_detail" : "House # 433, Street # 42, Washing Line, Lahore",
        "city" : "Lahore",
        "country" : "Pakistan",
        "postal_code" : "54000"
    }
}
{
    "first_name" : "Muhammad",
    "last_name" : "Saleem",
    "contacts" : [ 
        "03244770979"
    ],
    "username" : "saleem23",
    "role" : [ 
        "patient"
    ],
    "email" : "saleem@gmail.com",
    "password" : "test1234",
    "address" : {
        "address_detail" : "House # 433, Street # 42, Washing Line, Lahore",
        "city" : "Lahore",
        "country" : "Pakistan",
        "postal_code" : "54000"
    }
}